{
  "goggles_s": {
    "Farenheit (Grey)": {
      "price": 575,
      "image": "goggles/images/s1.jpg"
    },
    "Opium (Grey)": {
      "price": 325,
      "image": "goggles/images/s2.jpg"
    },
    "Kenneth Cole": {
      "price": 575,
      "image": "goggles/images/s3.jpg"
    },
    "Farenheit Oval": {
      "price": 325,
      "image": "goggles/images/s4.jpg"
    }
  },
  "goggles_m": {
    "Aislin Wayfarer": {
      "price": 775,
      "image": "goggles/images/m1.jpg"
    },
    "Azmani Round": {
      "price": 725,
      "image": "goggles/images/m2.jpg"
    },
    "Farenheit Wayfarer": {
      "price": 475,
      "image": "goggles/images/m3.jpg"
    },
    "Fossil Wayfarer": {
      "price": 825,
      "image": "goggles/images/m4.jpg"
    }
  }
}